post_synth.vcd
$date
	Mon Dec 22 00:52:31 2025
$end
$version
	Icarus Verilog
$end
$timescale
	1s
$end
$scope module testbench $end
$var wire 4 ! s_flag [3:0] $end
$var wire 4 " s_Y [3:0] $end
$var wire 1 # s_RSTn $end
$var wire 1 $ s_CLK $end
$var parameter 32 % DATA_WIDTH $end
$var parameter 32 & FLAG_ERR $end
$var parameter 32 ' FLAG_NEG $end
$var parameter 32 ( FLAG_OVERFLOW $end
$var parameter 32 ) FLAG_POS $end
$var reg 4 * s_A [3:0] $end
$var reg 4 + s_B [3:0] $end
$var reg 2 , s_sel [1:0] $end
$var integer 32 - i [31:0] $end
$scope module UTOP $end
$var wire 1 . _00_ $end
$var wire 1 / _01_ $end
$var wire 1 0 _10_ $end
$var wire 1 1 _11_ $end
$var wire 1 2 _12_ $end
$var wire 1 3 _13_ $end
$var wire 1 4 _14_ $end
$var wire 1 5 _15_ $end
$var wire 1 6 _18_ $end
$var wire 1 7 _20_ $end
$var wire 1 8 _23_ $end
$var wire 1 9 decoder_overflow $end
$var wire 4 : i_arg0 [3:0] $end
$var wire 4 ; i_arg1 [3:0] $end
$var wire 2 < i_oper [1:0] $end
$var wire 1 = nand_err $end
$var wire 1 > nand_overflow $end
$var wire 1 ? oh_err $end
$var wire 1 @ sub_err $end
$var wire 1 A temp_neg $end
$var wire 1 B temp_pos $end
$var wire 1 C temp_overflow $end
$var wire 1 D temp_err $end
$var wire 4 E sub_result [3:0] $end
$var wire 1 F sub_overflow $end
$var wire 4 G oh_result [3:0] $end
$var wire 1 H oh_overflow $end
$var wire 4 I o_result [3:0] $end
$var wire 4 J o_flag [3:0] $end
$var wire 4 K nand_result [3:0] $end
$var wire 1 # i_rstn $end
$var wire 1 $ i_clk $end
$var wire 4 L decoder_result [3:0] $end
$var wire 1 M decoder_err $end
$var wire 4 N _22_ [3:0] $end
$var wire 16 O _21_ [15:0] $end
$var wire 4 P _19_ [3:0] $end
$var wire 4 Q _17_ [3:0] $end
$var wire 4 R _16_ [3:0] $end
$var wire 2 S _09_ [1:0] $end
$var wire 2 T _08_ [1:0] $end
$var wire 2 U _07_ [1:0] $end
$var wire 2 V _06_ [1:0] $end
$var wire 2 W _05_ [1:0] $end
$var wire 2 X _04_ [1:0] $end
$var wire 2 Y _03_ [1:0] $end
$var wire 2 Z _02_ [1:0] $end
$scope module u_decoder $end
$var wire 32 [ i [31:0] $end
$var wire 1 \ i_a_oh $end
$var wire 1 ] i_b_oh $end
$var wire 1 9 o_overflow $end
$var wire 32 ^ posit [31:0] $end
$var wire 4 _ o_y_u2 [3:0] $end
$var wire 1 M o_err $end
$var wire 2 ` i_onehot [1:0] $end
$var wire 32 a _0_ [31:0] $end
$upscope $end
$scope module u_nand_gate $end
$var wire 4 b i_a [3:0] $end
$var wire 4 c i_b [3:0] $end
$var wire 1 = o_err $end
$var wire 1 > o_overflow $end
$var wire 4 d o_y [3:0] $end
$var wire 4 e _0_ [3:0] $end
$upscope $end
$scope module u_starting_ones $end
$var wire 1 f _031_ $end
$var wire 1 g _032_ $end
$var wire 1 h _033_ $end
$var wire 1 i _034_ $end
$var wire 1 j _035_ $end
$var wire 1 k _036_ $end
$var wire 1 l _037_ $end
$var wire 1 m _038_ $end
$var wire 1 n _039_ $end
$var wire 1 o _040_ $end
$var wire 1 p _041_ $end
$var wire 1 q _042_ $end
$var wire 1 r _043_ $end
$var wire 32 s i [31:0] $end
$var wire 4 t i_a [3:0] $end
$var wire 4 u i_b [3:0] $end
$var wire 1 ? o_err $end
$var wire 1 H o_overflow $end
$var wire 4 v o_y [3:0] $end
$var wire 32 w count [31:0] $end
$var wire 8 x c [7:0] $end
$var wire 32 y _030_ [31:0] $end
$var wire 32 z _029_ [31:0] $end
$var wire 32 { _028_ [31:0] $end
$var wire 32 | _027_ [31:0] $end
$var wire 32 } _026_ [31:0] $end
$var wire 32 ~ _025_ [31:0] $end
$var wire 32 !" _024_ [31:0] $end
$var wire 32 "" _023_ [31:0] $end
$var wire 32 #" _022_ [31:0] $end
$var wire 32 $" _021_ [31:0] $end
$var wire 32 %" _020_ [31:0] $end
$var wire 32 &" _019_ [31:0] $end
$var wire 32 '" _018_ [31:0] $end
$var wire 32 (" _017_ [31:0] $end
$var wire 32 )" _016_ [31:0] $end
$var wire 32 *" _015_ [31:0] $end
$var wire 32 +" _014_ [31:0] $end
$var wire 32 ," _013_ [31:0] $end
$var wire 32 -" _012_ [31:0] $end
$var wire 32 ." _011_ [31:0] $end
$var wire 32 /" _010_ [31:0] $end
$var wire 32 0" _009_ [31:0] $end
$var wire 32 1" _008_ [31:0] $end
$var wire 32 2" _007_ [31:0] $end
$var wire 32 3" _006_ [31:0] $end
$var wire 32 4" _005_ [31:0] $end
$var wire 32 5" _004_ [31:0] $end
$var wire 32 6" _003_ [31:0] $end
$var wire 4 7" _002_ [3:0] $end
$var wire 8 8" _001_ [7:0] $end
$var wire 16 9" _000_ [15:0] $end
$upscope $end
$scope module u_subtractor $end
$var wire 1 :" _00_ $end
$var wire 1 ;" _01_ $end
$var wire 1 <" _06_ $end
$var wire 1 =" _07_ $end
$var wire 4 >" i_a [3:0] $end
$var wire 4 ?" i_b [3:0] $end
$var wire 1 @ o_err $end
$var wire 1 F o_overflow $end
$var wire 4 @" o_y [3:0] $end
$var wire 4 A" _05_ [3:0] $end
$var wire 4 B" _04_ [3:0] $end
$var wire 4 C" _03_ [3:0] $end
$var wire 4 D" _02_ [3:0] $end
$upscope $end
$upscope $end
$scope module U_RST_CLK $end
$var wire 1 $ o_CLK $end
$var wire 1 # o_RSTn $end
$var parameter 32 E" CLK_PERIOD $end
$var parameter 32 F" CLOCK_PERIOD $end
$var parameter 88 G" SIGNAL_VCD_FILE $end
$var parameter 32 H" SIM_CLOCK_CYCLES $end
$var reg 1 I" clk $end
$var reg 1 J" rst_n $end
$upscope $end
$upscope $end
$enddefinitions $end
$comment Show the parameter values. $end
$dumpall
b1100100 H"
b101001101001001010001110100111001000001010011000101001100101110011101100110001101100100 G"
b1010 F"
b1010 E"
b10 )
b11 (
b1 '
b0 &
b100 %
$end
#0
$dumpvars
xJ"
xI"
b1111 D"
bz111 C"
b1111 B"
bz000 A"
b0 @"
b0 ?"
b0 >"
1="
1<"
0;"
0:"
b1111111111111100 9"
b11111110 8"
b1110 7"
b1 6"
b0 5"
b0 4"
b1 3"
b1 2"
b0 1"
b0 0"
b1 /"
b1 ."
b0 -"
b0 ,"
b1 +"
b1 *"
b0 )"
b0 ("
b1 '"
b1 &"
b0 %"
b0 $"
b1 #"
b1 ""
b0 !"
b0 ~
b1 }
b1 |
b0zzz0z00 {
b11111111111111111111111111110000 z
b111111111111111111111111zzzzzzzz y
b0 x
b0 w
b0 v
b0 u
b0 t
b11111111111111111111111111111111 s
0r
0q
0p
0o
0n
0m
0l
0k
0j
0i
0h
0g
1f
b0 e
b1111 d
b0 c
b0 b
b1 a
b0 `
b0 _
b0 ^
0]
0\
b10 [
b0 Z
b0 Y
b10 X
b0 W
b0 V
b0 U
b0 T
b0 S
b0 R
b1000 Q
b0 P
b0 O
b0 N
0M
b0 L
b1111 K
b0 J
b0 I
0H
b0 G
0F
b0 E
0D
0C
0B
0A
0@
0?
0>
0=
b0 <
b0 ;
b0 :
09
18
07
06
15
04
13
12
11
00
1/
1.
bx -
b0 ,
b0 +
b0 *
x$
x#
b0 "
b0 !
$end
#31
1#
1J"
#61
0$
0I"
0#
0J"
#65
b0 -
1$
1I"
#70
0$
0I"
#75
1A
0B
14
b1111 N
05
b11 Z
b10 V
b10 U
b10 T
b10 S
0D
b10 !
b10 J
0C
b1111 "
b1111 I
0<"
b11111111111111111111111111110010 z
b0zzz0z00 {
18
b10 G
b10 v
b111100000000 O
b1 ("
b0 '"
b10 &"
bz100 C"
b0 ~
b10 w
b11 |
b11 }
b10 X
b1 ,"
b0 +"
b1 )"
b10 *"
b0 $"
b11 #"
b10 !"
b11 ""
0="
b11 E
b11 @"
01
b100 Q
b1 L
b1 _
0.
10
b1 ^
b1 -"
b1110 D"
b10 %"
bz100 A"
b1010 B"
b10 `
1]
b1 -
b1 ,
b1 <
b1 +
b1 ;
b1 c
b1 u
b1 ?"
b10100 x
b100 *
b100 :
b100 b
b100 t
b100 >"
1$
1I"
#80
0$
0I"
#85
b11 ("
b10 '"
b100 &"
b1110 "
b1110 I
b11 ,"
b10 +"
b11 )"
b100 *"
b1110 N
b11 -"
b11 ."
b0 S
b0 0"
b11 2"
b111000000000 O
b1111111111111100 9"
b100 ""
b11 /"
b0 L
b0 _
b10 1"
b0 4"
b0 ^
b1110 K
b1110 d
b11111111111111111111111111110101 z
b0zzz0z01 {
b11 $"
b0 ~
b101 |
b101 }
bz011 C"
b110 E
b110 @"
b11 3"
b101 G
b101 v
b10 #"
b0 6"
b10 5"
1:"
b10 D"
b0 a
1M
b1 e
b101 w
b11 %"
b100 !"
bz010 A"
b1 B"
b11 `
1\
b10 -
b1101 +
b1101 ;
b1101 c
b1101 u
b1101 ?"
b11010011 x
b11 *
b11 :
b11 b
b11 t
b11 >"
1$
1I"
#90
0$
0I"
#95
b1111 "
b1111 I
b1111111111111101 9"
b1111 N
b10 S
b0zzz0z11 {
b11111111111111111111111111110011 z
b11 G
b11 v
b111100000000 O
b0 '"
b1 ("
b10 &"
b11 w
bz101 C"
b1111 K
b1111 d
b1 2"
b0 /"
b1 0"
b10 ."
b0 +"
b1 )"
b1 ,"
b10 *"
b0 $"
b11 ""
b0 ~
b11 |
0<"
0="
b11 E
b11 @"
b1 3"
b11 #"
b11 }
0M
b0 e
b1 6"
b0 5"
b1 1"
b1 -"
0:"
b1101 D"
b10 %"
b10 !"
bz101 A"
b1000 B"
b1 `
0]
b11 -
b10 +
b10 ;
b10 c
b10 u
b10 ?"
b100101 x
b101 *
b101 :
b101 b
b101 t
b101 >"
1$
1I"
#100
0$
0I"
#105
1#
1J"
b1111111111111100 9"
b11111111111111111111111111110101 z
b0zzz0z01 {
b101 G
b101 v
b1011 "
b1011 I
b11 *"
b101 w
b1011 N
b11 ."
b0 ,"
b0 ~
b101 |
b101 }
b11 +"
b0 U
b0 0"
b10 -"
b101 #"
b100 !"
b0 $"
b101 ""
b11 /"
b101100000000 O
b10 1"
bz001 C"
b100 &"
b100 %"
b1011 K
b1011 d
b1 4"
b0 3"
b10 2"
bz001 A"
b11 ("
b111 E
b111 @"
b10 '"
1F
b100 e
b1 5"
b1001 D"
b11 )"
1:"
1;"
b100 B"
b100 -
b110 +
b110 ;
b110 c
b110 u
b110 ?"
b1101101 x
b1101 *
b1101 :
b1101 b
b1101 t
b1101 >"
1$
1I"
#110
0$
0I"
#115
b11111111111111111111111111110101 z
b0zzz0z01 {
b101 G
b101 v
b101 |
b101 w
b101 ""
b0 ~
1B
b101 }
15
b1 Z
b100 !
b100 J
0A
b100 !"
b0 $"
b101 #"
b11 "
b11 I
b100 %"
b11 N
b10 '"
b11 ("
b100 &"
1="
b0 V
b11 *"
b11 )"
1;"
bz111 C"
b1100000000 O
b11 ."
b0 ,"
1<"
b1 E
b1 @"
b11 +"
b11 K
b11 d
b0 4"
b11 2"
b0 0"
b10 -"
b1110 B"
b11 3"
b11 /"
0F
b1100 e
b0 6"
b10 5"
b10 1"
0:"
b11 D"
b101 -
b11001101 x
b1100 +
b1100 ;
b1100 c
b1100 u
b1100 ?"
1$
1I"
#120
0$
0I"
#125
b1111111111111100 9"
14
1B
15
b10 Z
0A
b100 ""
b100 N
b1 U
0D
b100 !
b100 J
0C
b100 "
b100 I
b1 0"
b11 $"
18
b0 T
b0 S
b10 #"
b1 4"
b10 ."
bz110 C"
b11 %"
b1 X
b1000000 O
b0 /"
b1 L
b1 _
b1 1"
b10 2"
b11 +"
b0 ,"
b11 *"
b1 ^
b1011 K
b1011 d
b11111111111111111111111111110100 z
b0zzz0z00 {
b11 '"
b0 ("
b11 &"
b0 ~
b101 |
b101 }
0<"
b1 E
b1 @"
02
b10 Q
b0 3"
b100 G
b100 v
0/
1.
11
b1 6"
b1 5"
b10 -"
b1010 D"
b1 a
b100 e
b100 w
b10 )"
b100 !"
0;"
bz010 A"
b1100 B"
1]
b10 `
0\
b110 -
b10 ,
b10 <
b101 +
b101 ;
b101 c
b101 u
b101 ?"
b1010110 x
b110 *
b110 :
b110 b
b110 t
b110 >"
1$
1I"
#130
0$
0I"
#135
b100 !
b100 J
1B
14
b101 ""
b0 $"
b101 #"
b11 Z
b100 %"
b101 "
b101 I
b1 U
1;"
b10 '"
b11 ("
b100 &"
b101 N
b10 +"
b11 )"
b11 ,"
b100 *"
b1 S
b11 ."
b11 -"
0="
b0 L
b0 _
b1010000 O
b0 0"
b0 ^
b1010 K
b1010 d
b11111111111111111111111111110101 z
b0zzz0z01 {
b0 ~
b101 |
bz001 C"
b1110 E
b1110 @"
b11 /"
b101 G
b101 v
b101 }
b10 1"
b1000 D"
b0 a
1M
b101 e
b101 w
b100 !"
bz000 A"
b1101 B"
b11 `
1\
b111 -
b111 +
b111 ;
b111 c
b111 u
b111 ?"
b1110101 x
b101 *
b101 :
b101 b
b101 t
b101 >"
1$
1I"
#140
0$
0I"
#145
0C
07
b0 W
b0 P
0H
1B
1f
15
b100 !
b100 J
0A
b111111111111111111111111zzzzzzzz y
b11 Z
b11111110 8"
b1110 7"
b0 V
b1 U
b1111111111111100 9"
b101 "
b101 I
0k
b101 N
b0 T
b1 S
b10 ."
0i
b1010000 O
b1 0"
b11 $"
b100 ""
b11111111111111111111111111110101 z
b0zzz0z01 {
b0 /"
b10 #"
b101 G
b101 v
0F
b1 1"
b11 %"
b101 w
bz111 C"
b0 4"
b1 3"
b1 2"
b0 +"
b1 ,"
b10 *"
bz101 A"
b1101 K
b1101 d
b0 ("
b11 &"
b0 ~
b101 |
b101 }
1<"
b1101 E
b1101 @"
b11 '"
0M
b0 5"
b1 -"
b1101 D"
b10 e
b10 )"
b100 !"
1:"
0;"
b10 B"
b1 `
0]
b1000 -
b10 +
b10 ;
b10 c
b10 u
b10 ?"
b101111 x
b1111 *
b1111 :
b1111 b
b1111 t
b1111 >"
1$
1I"
#150
0$
0I"
#155
b1 Z
1C
17
b10 W
1B
15
b1100 !
b1100 J
0A
b1000 P
1F
1;"
b11 "
b11 I
b11 N
b0 U
b10 '"
b11 ("
b100 &"
b1111111111111101 9"
b0 V
b10 T
b10 S
b11 *"
b11 )"
b10 X
b1 L
b1 _
b11000000000000 O
bz000 C"
b1 4"
b0 3"
b10 2"
b1 0"
b0 /"
b10 ."
b0 ,"
b1 ^
b1111 K
b1111 d
b11111111111111111111111111110011 z
b0zzz0z11 {
b10 #"
b11 $"
b100 ""
b11 ~
b100 |
0<"
0="
b11 E
b11 @"
12
b1000 Q
b11 +"
b11 G
b11 v
b10 }
1/
00
b1 5"
b1 1"
b10 -"
b1010 D"
b1 a
b0 e
b11 w
b11 %"
b11 !"
bz000 A"
b10 B"
1]
b10 `
0\
b1001 -
b0 ,
b0 <
b101 +
b101 ;
b101 c
b101 u
b101 ?"
b1011000 x
b1000 *
b1000 :
b1000 b
b1000 t
b1000 >"
1$
1I"
#160
0$
0I"
#165
b0 ("
b101 &"
b101 '"
14
b11 ,"
b100 )"
1B
15
b1 Z
0A
b100 *"
b10 N
b10 +"
1="
0D
b100 !
b100 J
0C
b10 "
b10 I
b11 -"
07
1;"
18
b10 T
b0 S
b0 0"
b11 ."
b0 W
b1111111111111100 9"
b1 ~
b110 |
1<"
b10 X
b1000000000 O
b11 /"
b0 L
b0 _
b100 }
b10 1"
b0 4"
b11 2"
b0 P
b0 ^
b10 K
b10 d
b0zzz0z00 {
b11111111111111111111111111110110 z
b101 !"
b1 $"
b110 ""
bz111 C"
b0 E
b0 @"
01
b100 Q
b11 3"
0F
b110 G
b110 v
b100 #"
0.
10
b0 6"
b10 5"
0:"
b10 D"
b0 a
1M
b1101 e
b110 w
b101 %"
b1111 B"
b11 `
1\
b1010 -
b1 ,
b1 <
b1101 +
b1101 ;
b1101 c
b1101 u
b1101 ?"
b11011101 x
b1101 *
b1101 :
b1101 b
b1101 t
b1101 >"
1$
1I"
#170
0$
0I"
#175
0B
05
1A
b11 Z
b1010 !
b1010 J
1C
17
b1001 "
b1001 I
b10 S
b0 T
b1111111111111100 9"
b10 W
b1001 N
b11111111111111111111111111110100 z
b0zzz0z00 {
b1000 P
b10 V
b0 U
b100 G
b100 v
1F
b10 2"
b100 |
b100 w
b1001000000000000 O
bz111 C"
b1 4"
b11 /"
b0 0"
b11 ."
b11 +"
b0 ,"
b11 *"
b1101 K
b1101 d
b0 ("
b11 &"
b0 $"
b11 #"
b11 ""
b11 ~
1<"
1="
b1001 E
b1001 @"
11
b1000 Q
b0 3"
b11 '"
b10 }
1.
00
0M
b1 5"
b10 1"
b10 -"
b101 D"
b10 e
b10 )"
b10 %"
b11 !"
1:"
1;"
bz001 A"
b110 B"
b1 `
0]
b1011 -
b0 ,
b0 <
b1010 +
b1010 ;
b1010 c
b1010 u
b1010 ?"
b10100011 x
b11 *
b11 :
b11 b
b11 t
b11 >"
1$
1I"
#180
0$
0I"
#185
0F
14
0;"
0B
05
b11 Z
1A
b1111 N
07
b10 U
0D
b10 !
b10 J
0C
b1111 "
b1111 I
b10 T
18
b10 V
b10 S
b0 W
0="
b1111111111111100 9"
b10 X
b111100000000 O
b0 P
bz001 C"
b1111 K
b1111 d
b0zzz0z00 {
b11111111111111111111111111110010 z
b0 ~
b11 |
b11 }
0<"
b110 E
b110 @"
01
b100 Q
b10 G
b10 v
0.
10
b1 a
b0 e
b10 w
b10 !"
bz000 A"
b101 B"
b0 `
0\
b1100 -
b1 ,
b1 <
b10100000 x
b0 *
b0 :
b0 b
b0 t
b0 >"
1$
1I"
#190
0$
0I"
#195
b1101 "
b1101 I
b10 ."
b1101 N
b1 0"
b0 T
b1111111111111100 9"
b0 /"
b1 1"
b11 '"
b0 ("
b11 &"
b110100000000 O
b11111111111111111111111111110100 z
b0zzz0z00 {
b100 G
b100 v
b0 4"
b1 3"
b1 2"
b11 +"
b10 )"
b0 ,"
b11 *"
b1101 K
b1101 d
b10 #"
b11 $"
b100 ""
b100 w
b0 ~
b101 |
b101 }
bz100 C"
0<"
b11 E
b11 @"
b1 L
b1 _
b1 ^
b1 6"
b0 5"
b10 -"
0:"
b1100 D"
b10 e
b11 %"
b100 !"
bz100 A"
b1010 B"
b10 `
1]
b1101 -
b11 +
b11 ;
b11 c
b11 u
b11 ?"
b110110 x
b110 *
b110 :
b110 b
b110 t
b110 >"
1$
1I"
#200
0$
0I"
#205
1F
b10 '"
b11 ("
b100 &"
b10 Z
1;"
b10 +"
b11 )"
b11 ,"
b100 *"
b1100 "
b1100 I
b11 ."
b11 -"
b1100 N
b101 |
1="
b0 0"
b0 S
b0 ~
b11 /"
b101 }
b10 1"
b110000000000 O
b100 !"
1<"
b0 L
b0 _
b1 4"
b0 3"
b10 2"
b0 ^
b1100 K
b1100 d
b11111111111111111111111111110101 z
b0zzz0z01 {
b10 #"
b11 $"
b100 ""
bz111 C"
b1000 E
b1000 @"
b101 G
b101 v
b0 6"
b1 5"
1:"
b100 D"
b0 a
1M
b11 e
b101 w
b11 %"
bz000 A"
b111 B"
b11 `
1\
b1110 -
b1011 +
b1011 ;
b1011 c
b1011 u
b1011 ?"
b10110011 x
b11 *
b11 :
b11 b
b11 t
b11 >"
1$
1I"
#210
0$
0I"
#215
b1111111111111100 9"
b101 |
b11 Z
b0 ~
0F
b1101 "
b1101 I
b101 }
0;"
b100 !"
b1101 N
b10 /"
b11 0"
b100 ."
b10 #"
b11 $"
b100 ""
b10 S
b11 2"
b11 1"
b10 '"
b11 %"
b11 ("
b100 &"
0="
b110100000000 O
1<"
b0 4"
b10 +"
b11 )"
b11 ,"
b100 *"
b1101 K
b1101 d
b11111111111111111111111111110100 z
b0zzz0z00 {
bz011 C"
b100 E
b100 @"
b11 3"
b100 G
b100 v
b10 5"
b11 -"
b1 D"
b1 a
0M
b10 e
b100 w
b11 B"
0]
b0 `
0\
b1111 -
b1110 +
b1110 ;
b1110 c
b1110 u
b1110 ?"
b11100010 x
b10 *
b10 :
b10 b
b10 t
b10 >"
1$
1I"
#220
0$
0I"
#225
07
b0 W
b0 P
0H
1f
0r
0o
b111111111111111111111111zzzzzzzz y
0p
0m
b11111110 8"
b1110 7"
b1 T
b1111111111111100 9"
14
1B
15
b11 Z
0A
0h
0i
0k
b110 N
0D
b100 !
b100 J
0C
b110 "
b110 I
b1 0"
b10 ."
b1 ~
b110 |
18
b0 V
b1 U
b0 S
b0 /"
b100 }
b1 1"
b101 !"
b1 X
b1100000 O
bz111 C"
b1 2"
b0 ,"
b11 *"
b1100 K
b1100 d
b11111111111111111111111111110110 z
b0zzz0z00 {
b11 ("
b100 &"
b0 $"
b101 ""
0="
b1100 E
b1100 @"
02
b10 Q
b0 L
b0 _
b1 3"
b11 +"
b110 G
b110 v
b10 '"
b101 #"
0F
0/
1.
11
1M
b0 ^
b1 6"
b0 5"
b10 -"
b1100 D"
b0 a
b11 e
b110 w
b11 )"
b100 %"
0;"
bz100 A"
b11 B"
1]
b11 `
1\
b10000 -
b10 ,
b10 <
b11 +
b11 ;
b11 c
b11 u
b11 ?"
b111111 x
b1111 *
b1111 :
b1111 b
b1111 t
b1111 >"
1$
1I"
#230
0$
0I"
#235
b100 !
b100 J
1B
14
b10 Z
b1111111111111100 9"
b1 U
b100 "
b100 I
b100 N
b10 '"
b11 ("
b100 &"
0;"
b0 ~
b101 |
b0 T
b0 S
b101 }
b11 2"
b11 *"
b11 )"
b100 !"
0<"
b1000000 O
b0 4"
b0 0"
b11 /"
b11 ."
b0 ,"
b111 K
b111 d
b0zzz0z00 {
b11111111111111111111111111110100 z
b11 $"
b100 ""
bz011 C"
0="
b1110 E
b1110 @"
b11 3"
b11 +"
b100 G
b100 v
b10 #"
b0 6"
b10 5"
b10 1"
b10 -"
0:"
b11 D"
b1 a
0M
b1000 e
b100 w
b11 %"
bz010 A"
b1001 B"
0]
b0 `
0\
b10001 -
b1100 +
b1100 ;
b1100 c
b1100 u
b1100 ?"
b11001010 x
b1010 *
b1010 :
b1010 b
b1010 t
b1010 >"
1$
1I"
#240
0$
0I"
#245
b1111111111111101 9"
b11111111111111111111111111110011 z
b0zzz0z11 {
b11 G
b11 v
0C
0B
b11 ~
b11 w
b100 |
b10 }
07
05
b10 !
b10 J
1A
b11 Z
b11 ""
b11 !"
b0 W
b1001 "
b1001 I
b11 &"
b0 $"
b10 S
b0 P
b1001 N
b11 #"
0F
b10 %"
b0 ("
0;"
b10 V
b0 U
b0 T
b11 '"
b1 ."
b10 )"
bz110 C"
1="
b1001 E
b1001 @"
b10 X
b1001000000000000 O
b1 /"
b1111 K
b1111 d
b0 1"
b1 2"
b0 +"
b1 ,"
b10 *"
b100 B"
12
b1000 Q
b1 L
b1 _
b1 3"
1/
00
b1 ^
b0 e
b1 6"
b0 5"
b1 -"
1:"
b1110 D"
b10 `
1]
b10010 -
b0 ,
b0 <
b11010 x
b1 +
b1 ;
b1 c
b1 u
b1 ?"
1$
1I"
#250
0$
0I"
#255
b10 #"
b11 $"
b100 ""
b10 '"
b11 %"
b11 ("
b100 &"
14
b11 *"
b11 )"
1B
15
b1 Z
0A
b0 ,"
b1 N
b11 +"
0D
b100 !
b100 J
0C
b1 "
b1 I
b10 -"
0;"
b1111111111111101 9"
18
b0 V
b1 S
b1 0"
b0 /"
b10 ."
b11111111111111111111111111110011 z
b0zzz0z11 {
0="
b1 X
b1 O
b11 G
b11 v
b111 K
b111 d
b1 4"
b0 3"
b1 1"
b10 2"
b11 w
b11 ~
b100 |
b10 }
bz000 C"
b1111 E
b1111 @"
03
b1 Q
0/
0.
10
b1000 e
b0 6"
b1 5"
0:"
b110 D"
b11 !"
bz000 A"
b1110 B"
b10011 -
b11 ,
b11 <
b1001 +
b1001 ;
b1001 c
b1001 u
b1001 ?"
b10011000 x
b1000 *
b1000 :
b1000 b
b1000 t
b1000 >"
1$
1I"
#260
0$
0I"
#265
14
1B
15
b100 !
b100 J
0A
b0 V
b10 Z
b100 "
b100 I
0k
b100 N
b1 U
b0 S
1<"
b1111111111111100 9"
b0 T
b11 ."
b11 *"
b0zzz0z00 {
b11111111111111111111111111110100 z
1="
b1000000 O
b100 G
b100 v
b1 4"
b0 3"
b10 2"
b0 0"
b0 ,"
b1001 K
b1001 d
b11 '"
b0 ("
b11 &"
b11 $"
b100 ""
b100 w
b0 ~
b101 |
bz111 C"
b0 E
b0 @"
13
b10 Q
b0 L
b0 _
b11 /"
b11 +"
b10 #"
b101 }
1.
02
b0 ^
b1 6"
b1 5"
b10 1"
b10 -"
b1001 D"
b110 e
b10 )"
b11 %"
b100 !"
0;"
bz000 A"
b1111 B"
b0 `
0]
b10100 -
b10 ,
b10 <
b110 +
b110 ;
b110 c
b110 u
b110 ?"
b1100110 x
b110 *
b110 :
b110 b
b110 t
b110 >"
1$
1I"
#270
0$
0I"
#275
04
0B
15
b0 Z
0A
b101 ""
b0 N
0D
b0 !
b0 J
0C
b0 "
b0 I
b0 $"
b1111111111111100 9"
18
b0 U
b101 #"
0="
b100 %"
b0zzz0z00 {
b11111111111111111111111111110100 z
b1 X
b0 O
b100 G
b100 v
bz101 C"
bz100 A"
b111 K
b111 d
b10 '"
b11 ("
b100 &"
b0 ~
b100 w
b101 |
0<"
b10 E
b10 @"
03
b1 Q
b101 }
0.
12
b0 6"
b101 D"
b1000 e
b11 )"
b100 !"
1;"
b1001 B"
b10101 -
b11 ,
b11 <
b1010 +
b1010 ;
b1010 c
b1010 u
b1010 ?"
b10101100 x
b1100 *
b1100 :
b1100 b
b1100 t
b1100 >"
1$
1I"
#280
0$
0I"
#285
0B
04
b1111111111111101 9"
b0 Z
b0 "
b0 I
b0 N
b1 !
b1 J
1D
16
b0 S
b10 ."
1<"
b0 ~
b11 |
b1 Y
b0 O
b11 }
b1 4"
b0 3"
b10 2"
b1 0"
b11 +"
b0 ,"
b11 *"
b1110 K
b1110 d
b11111111111111111111111111110011 z
b0zzz0z11 {
b11 '"
b0 ("
b11 &"
b0 $"
b10 !"
b11 ""
bz011 C"
b1100 E
b1100 @"
b1 R
b0 L
b0 _
b0 /"
b11 G
b11 v
b11 #"
1M
b0 ^
b1 6"
b1 5"
b1 1"
b10 -"
b1010 D"
b0 a
b1 e
b11 w
b10 )"
b10 %"
1;"
bz000 A"
b1011 B"
1]
b11 `
1\
b10110 -
b101 +
b101 ;
b101 c
b101 u
b101 ?"
b1010001 x
b1 *
b1 :
b1 b
b1 t
b1 >"
1$
1I"
#290
0$
0I"
#295
1B
14
b11 Z
b1 U
b101 "
b101 I
b1111111111111100 9"
b101 N
b100 !
b100 J
0D
b11111111111111111111111111110101 z
b0zzz0z01 {
b0 T
b1 S
06
b101 G
b101 v
b11 ."
b11 *"
bz111 C"
1="
b10 #"
b11 $"
b100 ""
b101 w
b1010000 O
b0 Y
b0 0"
b0 ,"
b101 K
b101 d
b10 '"
b11 %"
b11 ("
b100 &"
b0 ~
b101 |
b101 }
1<"
b1 E
b1 @"
13
b10 Q
b0 R
b11 /"
b11 +"
1.
02
0M
b0 6"
b10 1"
b10 -"
b101 D"
b1010 e
b11 )"
b100 !"
1;"
bz001 A"
b1110 B"
b1 `
0]
b10111 -
b10 ,
b10 <
b1010 +
b1010 ;
b1010 c
b1010 u
b1010 ?"
b10101011 x
b1011 *
b1011 :
b1011 b
b1011 t
b1011 >"
1$
1I"
#300
0$
0I"
#305
14
b1111111111111101 9"
0B
05
b11 Z
1A
b1110 N
0D
b10 !
b10 J
0C
b1110 "
b1110 I
b10 T
b10 V
b0zzz0z11 {
b11111111111111111111111111110011 z
18
b10 U
b0 S
b11 G
b11 v
b1 ."
b11 w
b10 X
b111000000000 O
bz111 C"
b0 4"
b1 3"
b1 2"
b0 0"
b0 +"
b1 ,"
b10 *"
b1110 K
b1110 d
b0 '"
b1 ("
b10 &"
b0 $"
b11 ""
b0 ~
b11 |
1<"
0="
b100 E
b100 @"
01
b100 Q
b1 /"
b11 #"
b11 }
1/
0.
12
1M
b1 6"
b0 5"
b0 1"
b1 -"
b1110 D"
b1 e
b1 )"
b10 %"
b10 !"
0;"
bz100 A"
b1011 B"
b11 `
1]
b11000 -
b1 ,
b1 <
b1 +
b1 ;
b1 c
b1 u
b1 ?"
b10101 x
b101 *
b101 :
b101 b
b101 t
b101 >"
1$
1I"
#310
0$
0I"
#315
04
0B
15
b0 Z
0A
b0 N
0F
0D
b0 !
b0 J
0C
b0 "
b0 I
b11 ."
0;"
18
b0 V
b0 U
b0 T
b0 0"
b11 2"
b0 ("
b11 '"
b11 &"
b1111111111111101 9"
b11 ""
b1 X
b0 O
b11 /"
b10 1"
b0 4"
b0 ,"
b11 +"
b10 )"
b11 *"
b1111 K
b1111 d
b11111111111111111111111111110011 z
b0zzz0z11 {
b0 $"
b11 ~
b100 |
b10 }
bz011 C"
0<"
0="
b110 E
b110 @"
03
b1 Q
b11 3"
b11 G
b11 v
b11 #"
0/
11
b0 6"
b10 5"
b10 -"
1:"
b11 D"
b1 a
0M
b0 e
b11 w
b10 %"
b11 !"
bz010 A"
b1 B"
0]
b0 `
0\
b11001 -
b11 ,
b11 <
b1100 +
b1100 ;
b1100 c
b1100 u
b1100 ?"
b11000010 x
b10 *
b10 :
b10 b
b10 t
b10 >"
1$
1I"
#320
0$
0I"
