pre_synth.vcd
$date
	Mon Dec 22 00:44:15 2025
$end
$version
	Icarus Verilog
$end
$timescale
	1s
$end
$scope module testbench $end
$var wire 4 ! s_flag [3:0] $end
$var wire 4 " s_Y [3:0] $end
$var wire 1 # s_RSTn $end
$var wire 1 $ s_CLK $end
$var parameter 32 % DATA_WIDTH $end
$var parameter 32 & FLAG_ERR $end
$var parameter 32 ' FLAG_NEG $end
$var parameter 32 ( FLAG_OVERFLOW $end
$var parameter 32 ) FLAG_POS $end
$var reg 4 * s_A [3:0] $end
$var reg 4 + s_B [3:0] $end
$var reg 2 , s_sel [1:0] $end
$var integer 32 - i [31:0] $end
$scope module UTOP $end
$var wire 4 . i_arg0 [3:0] $end
$var wire 4 / i_arg1 [3:0] $end
$var wire 2 0 i_oper [1:0] $end
$var wire 4 1 sub_result [3:0] $end
$var wire 1 2 sub_overflow $end
$var wire 1 3 sub_err $end
$var wire 4 4 oh_result [3:0] $end
$var wire 1 5 oh_overflow $end
$var wire 1 6 oh_err $end
$var wire 4 7 nand_result [3:0] $end
$var wire 1 8 nand_overflow $end
$var wire 1 9 nand_err $end
$var wire 1 # i_rstn $end
$var wire 1 $ i_clk $end
$var wire 4 : decoder_result [3:0] $end
$var wire 1 ; decoder_overflow $end
$var wire 1 < decoder_err $end
$var parameter 32 = LEN $end
$var parameter 32 > WIDTH $end
$var reg 4 ? o_flag [3:0] $end
$var reg 4 @ o_result [3:0] $end
$var reg 1 A temp_err $end
$var reg 1 B temp_neg $end
$var reg 1 C temp_overflow $end
$var reg 1 D temp_pos $end
$scope module u_decoder $end
$var wire 4 E i_a_oh [3:0] $end
$var wire 4 F i_b_oh [3:0] $end
$var parameter 32 G LEN $end
$var parameter 32 H WIDTH $end
$var reg 8 I i_onehot [7:0] $end
$var reg 1 < o_err $end
$var reg 1 ; o_overflow $end
$var reg 4 J o_y_u2 [3:0] $end
$var reg 1 K s_was1 $end
$var integer 32 L i [31:0] $end
$var integer 32 M posit [31:0] $end
$upscope $end
$scope module u_nand_gate $end
$var wire 4 N i_a [3:0] $end
$var wire 4 O i_b [3:0] $end
$var parameter 32 P WIDTH $end
$var reg 1 9 o_err $end
$var reg 1 8 o_overflow $end
$var reg 4 Q o_y [3:0] $end
$upscope $end
$scope module u_starting_ones $end
$var wire 4 R i_a [3:0] $end
$var wire 4 S i_b [3:0] $end
$var parameter 32 T WIDTH $end
$var reg 8 U c [7:0] $end
$var reg 1 6 o_err $end
$var reg 1 5 o_overflow $end
$var reg 4 V o_y [3:0] $end
$var integer 32 W count [31:0] $end
$var integer 32 X i [31:0] $end
$upscope $end
$scope module u_subtractor $end
$var wire 4 Y i_a [3:0] $end
$var wire 4 Z i_b [3:0] $end
$var parameter 32 [ WIDTH $end
$var reg 1 3 o_err $end
$var reg 1 2 o_overflow $end
$var reg 4 \ o_y [3:0] $end
$upscope $end
$upscope $end
$scope module U_RST_CLK $end
$var wire 1 $ o_CLK $end
$var wire 1 # o_RSTn $end
$var parameter 32 ] CLK_PERIOD $end
$var parameter 32 ^ CLOCK_PERIOD $end
$var parameter 88 _ SIGNAL_VCD_FILE $end
$var parameter 32 ` SIM_CLOCK_CYCLES $end
$var reg 1 a clk $end
$var reg 1 b rst_n $end
$upscope $end
$upscope $end
$enddefinitions $end
$comment Show the parameter values. $end
$dumpall
b1100100 `
b101001101001001010001110100111001000001010011000101001100101110011101100110001101100100 _
b1010 ^
b1010 ]
b100 [
b100 T
b100 P
b100 H
b100 G
b100 >
b100 =
b10 )
b11 (
b1 '
b0 &
b100 %
$end
#0
$dumpvars
xb
xa
b0 \
b0 Z
b0 Y
b11111111111111111111111111111111 X
b0 W
b0 V
b0 U
b0 S
b0 R
b1111 Q
b0 O
b0 N
b0 M
b1000 L
0K
b0 J
b0 I
b0 F
b0 E
0D
0C
0B
0A
b0 @
b0 ?
0<
0;
b0 :
09
08
b1111 7
06
05
b0 4
03
02
b0 1
b0 0
b0 /
b0 .
bx -
b0 ,
b0 +
b0 *
x$
x#
b0 "
b0 !
$end
#31
1#
1b
#61
0$
0a
0#
0b
#65
b0 -
1$
1a
#70
0$
0a
#75
b10 !
b10 ?
1B
b1111 "
b1111 @
b10 :
b10 J
1<
b10 M
1K
b1000 L
b10100 I
b10 4
b10 V
b10 W
b11111111111111111111111111111111 X
b10100 U
b11 1
b11 \
b1 -
b1 ,
b1 0
b1 +
b1 /
b1 F
b1 O
b1 S
b1 Z
b100 *
b100 .
b100 E
b100 N
b100 R
b100 Y
1$
1a
#80
0$
0a
#85
1B
b1110 "
b1110 @
b1000 L
b11010011 I
b0 M
1K
1<
b0 :
b0 J
b1110 7
b1110 Q
b101 4
b101 V
b11111111111111111111111111111111 X
b101 W
b11010011 U
b110 1
b110 \
b10 -
b1101 +
b1101 /
b1101 F
b1101 O
b1101 S
b1101 Z
b11 *
b11 .
b11 E
b11 N
b11 R
b11 Y
1$
1a
#90
0$
0a
#95
1B
b1111 "
b1111 @
b1000 L
b100101 I
1K
1<
b1111 7
b1111 Q
b11 4
b11 V
b11111111111111111111111111111111 X
b11 W
b100101 U
b11 1
b11 \
b11 -
b10 +
b10 /
b10 F
b10 O
b10 S
b10 Z
b101 *
b101 .
b101 E
b101 N
b101 R
b101 Y
1$
1a
#100
0$
0a
#105
1#
1b
1B
b1011 "
b1011 @
b1000 L
b1101101 I
1K
1<
b1011 7
b1011 Q
b101 4
b101 V
b11111111111111111111111111111111 X
b101 W
b1101101 U
12
b111 1
b111 \
b100 -
b110 +
b110 /
b110 F
b110 O
b110 S
b110 Z
b1101 *
b1101 .
b1101 E
b1101 N
b1101 R
b1101 Y
1$
1a
#110
0$
0a
#115
b100 !
b100 ?
1D
0B
b11 "
b11 @
b1000 L
b11001101 I
1K
1<
b11 7
b11 Q
b11111111111111111111111111111111 X
b101 W
b11001101 U
02
b1 1
b1 \
b101 -
b1100 +
b1100 /
b1100 F
b1100 O
b1100 S
b1100 Z
1$
1a
#120
0$
0a
#125
1D
b100 "
b100 @
b1 :
b1 J
b1 M
b1000 L
b1010110 I
1K
1<
b1011 7
b1011 Q
b100 4
b100 V
b11111111111111111111111111111111 X
b100 W
b1010110 U
b110 -
b10 ,
b10 0
b101 +
b101 /
b101 F
b101 O
b101 S
b101 Z
b110 *
b110 .
b110 E
b110 N
b110 R
b110 Y
1$
1a
#130
0$
0a
#135
1D
b101 "
b101 @
b1000 L
b1110101 I
b0 M
1K
1<
b0 :
b0 J
b1010 7
b1010 Q
b101 4
b101 V
b11111111111111111111111111111111 X
b101 W
b1110101 U
b1110 1
b1110 \
b111 -
b111 +
b111 /
b111 F
b111 O
b111 S
b111 Z
b101 *
b101 .
b101 E
b101 N
b101 R
b101 Y
1$
1a
#140
0$
0a
#145
1D
b101 "
b101 @
b1000 L
b101111 I
1K
1<
b1101 7
b1101 Q
b11111111111111111111111111111111 X
b101 W
b101111 U
b1101 1
b1101 \
b1000 -
b10 +
b10 /
b10 F
b10 O
b10 S
b10 Z
b1111 *
b1111 .
b1111 E
b1111 N
b1111 R
b1111 Y
1$
1a
#150
0$
0a
#155
b1100 !
b1100 ?
1C
1D
b11 "
b11 @
b11 :
b11 J
b11 M
b1000 L
b1011000 I
1K
1<
b1111 7
b1111 Q
b11 4
b11 V
b11111111111111111111111111111111 X
b11 W
b1011000 U
12
b11 1
b11 \
b1001 -
b0 ,
b0 0
b101 +
b101 /
b101 F
b101 O
b101 S
b101 Z
b1000 *
b1000 .
b1000 E
b1000 N
b1000 R
b1000 Y
1$
1a
#160
0$
0a
#165
b100 !
b100 ?
1D
0C
b10 "
b10 @
b1000 L
b11011101 I
b0 M
1K
1<
b0 :
b0 J
b10 7
b10 Q
b110 4
b110 V
b11111111111111111111111111111111 X
b110 W
b11011101 U
02
b0 1
b0 \
b1010 -
b1 ,
b1 0
b1101 +
b1101 /
b1101 F
b1101 O
b1101 S
b1101 Z
b1101 *
b1101 .
b1101 E
b1101 N
b1101 R
b1101 Y
1$
1a
#170
0$
0a
#175
b1010 !
b1010 ?
1B
1C
0D
b1001 "
b1001 @
b1000 L
b10100011 I
1K
1<
b1101 7
b1101 Q
b100 4
b100 V
b11111111111111111111111111111111 X
b100 W
b10100011 U
12
b1001 1
b1001 \
b1011 -
b0 ,
b0 0
b1010 +
b1010 /
b1010 F
b1010 O
b1010 S
b1010 Z
b11 *
b11 .
b11 E
b11 N
b11 R
b11 Y
1$
1a
#180
0$
0a
#185
b10 !
b10 ?
1B
0C
b1111 "
b1111 @
b101 :
b101 J
b101 M
b1000 L
b10100000 I
1K
1<
b1111 7
b1111 Q
b10 4
b10 V
b11111111111111111111111111111111 X
b10 W
b10100000 U
02
b110 1
b110 \
b1100 -
b1 ,
b1 0
b0 *
b0 .
b0 E
b0 N
b0 R
b0 Y
1$
1a
#190
0$
0a
#195
1B
b1101 "
b1101 @
b1000 L
b110110 I
b1 M
1K
1<
b1 :
b1 J
b1101 7
b1101 Q
b100 4
b100 V
b11111111111111111111111111111111 X
b100 W
b110110 U
b11 1
b11 \
b1101 -
b11 +
b11 /
b11 F
b11 O
b11 S
b11 Z
b110 *
b110 .
b110 E
b110 N
b110 R
b110 Y
1$
1a
#200
0$
0a
#205
1B
b1100 "
b1100 @
b1000 L
b10110011 I
b0 M
1K
1<
b0 :
b0 J
b1100 7
b1100 Q
b101 4
b101 V
b11111111111111111111111111111111 X
b101 W
b10110011 U
12
b1000 1
b1000 \
b1110 -
b1011 +
b1011 /
b1011 F
b1011 O
b1011 S
b1011 Z
b11 *
b11 .
b11 E
b11 N
b11 R
b11 Y
1$
1a
#210
0$
0a
#215
1B
b1101 "
b1101 @
b1 :
b1 J
b1 M
b1000 L
b11100010 I
1K
1<
b1101 7
b1101 Q
b100 4
b100 V
b11111111111111111111111111111111 X
b100 W
b11100010 U
02
b100 1
b100 \
b1111 -
b1110 +
b1110 /
b1110 F
b1110 O
b1110 S
b1110 Z
b10 *
b10 .
b10 E
b10 N
b10 R
b10 Y
1$
1a
#220
0$
0a
#225
b100 !
b100 ?
1D
0B
b110 "
b110 @
b1000 L
b111111 I
b0 M
1K
1<
b0 :
b0 J
b1100 7
b1100 Q
b110 4
b110 V
b11111111111111111111111111111111 X
b110 W
b111111 U
b1100 1
b1100 \
b10000 -
b10 ,
b10 0
b11 +
b11 /
b11 F
b11 O
b11 S
b11 Z
b1111 *
b1111 .
b1111 E
b1111 N
b1111 R
b1111 Y
1$
1a
#230
0$
0a
#235
1D
b100 "
b100 @
b1 :
b1 J
b1 M
b1000 L
b11001010 I
1K
1<
b111 7
b111 Q
b100 4
b100 V
b11111111111111111111111111111111 X
b100 W
b11001010 U
b1110 1
b1110 \
b10001 -
b1100 +
b1100 /
b1100 F
b1100 O
b1100 S
b1100 Z
b1010 *
b1010 .
b1010 E
b1010 N
b1010 R
b1010 Y
1$
1a
#240
0$
0a
#245
b10 !
b10 ?
1B
0D
b1001 "
b1001 @
b1000 L
b11010 I
b1 M
1K
1<
b1 :
b1 J
b1111 7
b1111 Q
b11 4
b11 V
b11111111111111111111111111111111 X
b11 W
b11010 U
b1001 1
b1001 \
b10010 -
b0 ,
b0 0
b1 +
b1 /
b1 F
b1 O
b1 S
b1 Z
1$
1a
#250
0$
0a
#255
b101 !
b101 ?
1D
1A
0B
b11 "
b11 @
b1000 L
b10011000 I
b11 M
1K
1<
b11 :
b11 J
b111 7
b111 Q
b11111111111111111111111111111111 X
b11 W
b10011000 U
b1111 1
b1111 \
b10011 -
b11 ,
b11 0
b1001 +
b1001 /
b1001 F
b1001 O
b1001 S
b1001 Z
b1000 *
b1000 .
b1000 E
b1000 N
b1000 R
b1000 Y
1$
1a
#260
0$
0a
#265
b100 !
b100 ?
1D
0A
b100 "
b100 @
b1000 L
b1100110 I
b1 M
1K
1<
b1 :
b1 J
b1001 7
b1001 Q
b100 4
b100 V
b11111111111111111111111111111111 X
b100 W
b1100110 U
b0 1
b0 \
b10100 -
b10 ,
b10 0
b110 +
b110 /
b110 F
b110 O
b110 S
b110 Z
b110 *
b110 .
b110 E
b110 N
b110 R
b110 Y
1$
1a
#270
0$
0a
#275
b101 !
b101 ?
1A
1D
b10 "
b10 @
b1000 L
b10101100 I
b10 M
1K
1<
b10 :
b10 J
b111 7
b111 Q
b11111111111111111111111111111111 X
b100 W
b10101100 U
b10 1
b10 \
b10101 -
b11 ,
b11 0
b1010 +
b1010 /
b1010 F
b1010 O
b1010 S
b1010 Z
b1100 *
b1100 .
b1100 E
b1100 N
b1100 R
b1100 Y
1$
1a
#280
0$
0a
#285
b1 !
b1 ?
0D
1A
b0 "
b0 @
b1000 L
b1010001 I
b0 M
1K
1<
b0 :
b0 J
b1110 7
b1110 Q
b11 4
b11 V
b11111111111111111111111111111111 X
b11 W
b1010001 U
b1100 1
b1100 \
b10110 -
b101 +
b101 /
b101 F
b101 O
b101 S
b101 Z
b1 *
b1 .
b1 E
b1 N
b1 R
b1 Y
1$
1a
#290
0$
0a
#295
b100 !
b100 ?
1D
b101 "
b101 @
0A
b1000 L
b10101011 I
1K
1<
b101 7
b101 Q
b101 4
b101 V
b11111111111111111111111111111111 X
b101 W
b10101011 U
b1 1
b1 \
b10111 -
b10 ,
b10 0
b1010 +
b1010 /
b1010 F
b1010 O
b1010 S
b1010 Z
b1011 *
b1011 .
b1011 E
b1011 N
b1011 R
b1011 Y
1$
1a
#300
0$
0a
#305
b10 !
b10 ?
1B
0D
b1110 "
b1110 @
b1000 L
b10101 I
1K
1<
b1110 7
b1110 Q
b11 4
b11 V
b11111111111111111111111111111111 X
b11 W
b10101 U
b100 1
b100 \
b11000 -
b1 ,
b1 0
b1 +
b1 /
b1 F
b1 O
b1 S
b1 Z
b101 *
b101 .
b101 E
b101 N
b101 R
b101 Y
1$
1a
#310
0$
0a
#315
b101 !
b101 ?
1D
1A
0B
b1 "
b1 @
b1 :
b1 J
b1 M
b1000 L
b11000010 I
1K
1<
b1111 7
b1111 Q
b11111111111111111111111111111111 X
b11 W
b11000010 U
b110 1
b110 \
b11001 -
b11 ,
b11 0
b1100 +
b1100 /
b1100 F
b1100 O
b1100 S
b1100 Z
b10 *
b10 .
b10 E
b10 N
b10 R
b10 Y
1$
1a
#320
0$
0a
#325
b1 !
b1 ?
0D
1A
b0 "
b0 @
b1000 L
b10001111 I
b0 M
1K
1<
b0 :
b0 J
b111 7
b111 Q
b101 4
b101 V
b11111111111111111111111111111111 X
b101 W
b10001111 U
b111 1
b111 \
b11010 -
b1000 +
b1000 /
b1000 F
b1000 O
b1000 S
b1000 Z
b1111 *
b1111 .
b1111 E
b1111 N
b1111 R
b1111 Y
1$
1a
#330
0$
0a
#335
1A
b1000 L
b11001111 I
1K
1<
b11 7
b11 Q
b110 4
b110 V
b11111111111111111111111111111111 X
b110 W
b11001111 U
b11 1
b11 \
b11011 -
b1100 +
b1100 /
b1100 F
b1100 O
b1100 S
b1100 Z
1$
1a
#340
0$
0a
#345
b0 !
b0 ?
0A
b1000 L
b10011001 I
1K
1<
b110 7
b110 Q
b100 4
b100 V
b11111111111111111111111111111111 X
b100 W
b10011001 U
b0 1
b0 \
b11100 -
b0 ,
b0 0
b1001 +
b1001 /
b1001 F
b1001 O
b1001 S
b1001 Z
b1001 *
b1001 .
b1001 E
b1001 N
b1001 R
b1001 Y
1$
1a
#350
0$
0a
#355
b100 !
b100 ?
1D
b100 "
b100 @
b1000 L
b10111 I
1K
1<
b1110 7
b1110 Q
b11111111111111111111111111111111 X
b100 W
b10111 U
b110 1
b110 \
b11101 -
b10 ,
b10 0
b1 +
b1 /
b1 F
b1 O
b1 S
b1 Z
b111 *
b111 .
b111 E
b111 N
b111 R
b111 Y
1$
1a
#360
0$
0a
#365
b10 !
b10 ?
1B
0D
b1010 "
b1010 @
b10 :
b10 J
b10 M
b1000 L
b101100 I
1K
1<
b1111 7
b1111 Q
b11 4
b11 V
b11111111111111111111111111111111 X
b11 W
b101100 U
b1010 1
b1010 \
b11110 -
b0 ,
b0 0
b10 +
b10 /
b10 F
b10 O
b10 S
b10 Z
b1100 *
b1100 .
b1100 E
b1100 N
b1100 R
b1100 Y
1$
1a
#370
0$
0a
#375
b100 !
b100 ?
1D
0B
b110 "
b110 @
b1000 L
b11010111 I
b0 M
1K
1<
b0 :
b0 J
b1010 7
b1010 Q
b110 4
b110 V
b11111111111111111111111111111111 X
b110 W
b11010111 U
12
b11111 -
b10 ,
b10 0
b1101 +
b1101 /
b1101 F
b1101 O
b1101 S
b1101 Z
b111 *
b111 .
b111 E
b111 N
b111 R
b111 Y
1$
1a
#380
0$
0a
#385
1D
b11 "
b11 @
b1 :
b1 J
b1 M
b1000 L
b11011110 I
1K
1<
b11 7
b11 Q
b11111111111111111111111111111111 X
b110 W
b11011110 U
02
b1 1
b1 \
b100000 -
b1 ,
b1 0
b1110 *
b1110 .
b1110 E
b1110 N
b1110 R
b1110 Y
1$
1a
#390
0$
0a
#395
b10 !
b10 ?
1B
0D
b1100 "
b1100 @
b1000 L
b111111 I
b0 M
1K
1<
b0 :
b0 J
b1100 7
b1100 Q
b11111111111111111111111111111111 X
b110 W
b111111 U
b1100 1
b1100 \
b100001 -
b11 +
b11 /
b11 F
b11 O
b11 S
b11 Z
b1111 *
b1111 .
b1111 E
b1111 N
b1111 R
b1111 Y
1$
1a
#400
0$
0a
#405
b100 !
b100 ?
1D
0B
b111 "
b111 @
b11 :
b11 J
b11 M
b1000 L
b10111000 I
1K
1<
b111 7
b111 Q
b100 4
b100 V
b11111111111111111111111111111111 X
b100 W
b10111000 U
b1101 1
b1101 \
b100010 -
b1011 +
b1011 /
b1011 F
b1011 O
b1011 S
b1011 Z
b1000 *
b1000 .
b1000 E
b1000 N
b1000 R
b1000 Y
1$
1a
#410
0$
0a
#415
1D
b101 "
b101 @
b1000 L
b10101111 I
b0 M
1K
1<
b0 :
b0 J
b101 7
b101 Q
b110 4
b110 V
b11111111111111111111111111111111 X
b110 W
b10101111 U
b101 1
b101 \
b100011 -
b0 ,
b0 0
b1010 +
b1010 /
b1010 F
b1010 O
b1010 S
b1010 Z
b1111 *
b1111 .
b1111 E
b1111 N
b1111 R
b1111 Y
1$
1a
#420
0$
0a
#425
b1010 !
b1010 ?
1B
1C
0D
b1000 "
b1000 @
b1 :
b1 J
b1 M
b1000 L
b11100110 I
1K
1<
b1001 7
b1001 Q
b101 4
b101 V
b11111111111111111111111111111111 X
b101 W
b11100110 U
12
b1000 1
b1000 \
b100100 -
b1110 +
b1110 /
b1110 F
b1110 O
b1110 S
b1110 Z
b110 *
b110 .
b110 E
b110 N
b110 R
b110 Y
1$
1a
#430
0$
0a
#435
b101 !
b101 ?
1D
1A
0B
0C
b1 "
b1 @
b1000 L
b1101010 I
b1 M
1K
1<
b1 :
b1 J
b1101 7
b1101 Q
b100 4
b100 V
b11111111111111111111111111111111 X
b100 W
b1101010 U
b100 1
b100 \
b100101 -
b11 ,
b11 0
b110 +
b110 /
b110 F
b110 O
b110 S
b110 Z
b1010 *
b1010 .
b1010 E
b1010 N
b1010 R
b1010 Y
1$
1a
#440
0$
0a
#445
b1 !
b1 ?
0D
1A
b0 "
b0 @
b1000 L
b11110011 I
b0 M
1K
1<
b0 :
b0 J
b1100 7
b1100 Q
b110 4
b110 V
b11111111111111111111111111111111 X
b110 W
b11110011 U
02
b100110 -
b1111 +
b1111 /
b1111 F
b1111 O
b1111 S
b1111 Z
b11 *
b11 .
b11 E
b11 N
b11 R
b11 Y
1$
1a
#450
0$
0a
#455
1A
b1000 L
b1001111 I
1K
1<
b1011 7
b1011 Q
b101 4
b101 V
b11111111111111111111111111111111 X
b101 W
b1001111 U
b1011 1
b1011 \
b100111 -
b100 +
b100 /
b100 F
b100 O
b100 S
b100 Z
b1111 *
b1111 .
b1111 E
b1111 N
b1111 R
b1111 Y
1$
1a
#460
0$
0a
#465
b100 !
b100 ?
1D
b101 "
b101 @
0A
b1000 L
b1101011 I
1K
1<
b1101 7
b1101 Q
b11111111111111111111111111111111 X
b101 W
b1101011 U
12
b101 1
b101 \
b101000 -
b10 ,
b10 0
b110 +
b110 /
b110 F
b110 O
b110 S
b110 Z
b1011 *
b1011 .
b1011 E
b1011 N
b1011 R
b1011 Y
1$
1a
#470
0$
0a
#475
1D
b101 "
b101 @
b1000 L
b11011001 I
1K
1<
b110 7
b110 Q
b11111111111111111111111111111111 X
b101 W
b11011001 U
02
b1100 1
b1100 \
b101001 -
b1101 +
b1101 /
b1101 F
b1101 O
b1101 S
b1101 Z
b1001 *
b1001 .
b1001 E
b1001 N
b1001 R
b1001 Y
1$
1a
#480
0$
0a
#485
b1 !
b1 ?
1A
0D
b0 "
b0 @
b1000 L
b1010101 I
1K
1<
b1010 7
b1010 Q
b100 4
b100 V
b11111111111111111111111111111111 X
b100 W
b1010101 U
b0 1
b0 \
b101010 -
b11 ,
b11 0
b101 +
b101 /
b101 F
b101 O
b101 S
b101 Z
b101 *
b101 .
b101 E
b101 N
b101 R
b101 Y
1$
1a
#490
0$
0a
#495
b1100 !
b1100 ?
1D
1C
b101 "
b101 @
0A
b1000 L
b1001001 I
1K
1<
b1111 7
b1111 Q
b11 4
b11 V
b11111111111111111111111111111111 X
b11 W
b1001001 U
12
b101 1
b101 \
b101011 -
b0 ,
b0 0
b100 +
b100 /
b100 F
b100 O
b100 S
b100 Z
b1001 *
b1001 .
b1001 E
b1001 N
b1001 R
b1001 Y
1$
1a
#500
0$
0a
#505
b100 !
b100 ?
1D
0C
b101 "
b101 @
b1 :
b1 J
b1 M
b1000 L
b10111010 I
1K
1<
b101 7
b101 Q
b101 4
b101 V
b11111111111111111111111111111111 X
b101 W
b10111010 U
02
b1111 1
b1111 \
b101100 -
b10 ,
b10 0
b1011 +
b1011 /
b1011 F
b1011 O
b1011 S
b1011 Z
b1010 *
b1010 .
b1010 E
b1010 N
b1010 R
b1010 Y
1$
1a
#510
0$
0a
#515
1D
b111 "
b111 @
b1000 L
b10101100 I
b10 M
1K
1<
b10 :
b10 J
b111 7
b111 Q
b100 4
b100 V
b11111111111111111111111111111111 X
b100 W
b10101100 U
b10 1
b10 \
b101101 -
b1 ,
b1 0
b1010 +
b1010 /
b1010 F
b1010 O
b1010 S
b1010 Z
b1100 *
b1100 .
b1100 E
b1100 N
b1100 R
b1100 Y
1$
1a
#520
0$
0a
#525
1D
b100 "
b100 @
b1000 L
b1100011 I
b0 M
1K
1<
b0 :
b0 J
b1101 7
b1101 Q
b11111111111111111111111111111111 X
b100 W
b1100011 U
b1101 1
b1101 \
b101110 -
b10 ,
b10 0
b110 +
b110 /
b110 F
b110 O
b110 S
b110 Z
b11 *
b11 .
b11 E
b11 N
b11 R
b11 Y
1$
1a
#530
0$
0a
#535
1D
b101 "
b101 @
b1000 L
b10100111 I
1K
1<
b101 4
b101 V
b11111111111111111111111111111111 X
b101 W
b10100111 U
12
b101111 -
b1010 +
b1010 /
b1010 F
b1010 O
b1010 S
b1010 Z
b111 *
b111 .
b111 E
b111 N
b111 R
b111 Y
1$
1a
#540
0$
0a
#545
b10 !
b10 ?
1B
0D
b1111 "
b1111 @
b11 :
b11 J
b11 M
b1000 L
b10011000 I
1K
1<
b111 7
b111 Q
b11 4
b11 V
b11111111111111111111111111111111 X
b11 W
b10011000 U
02
b1111 1
b1111 \
b110000 -
b0 ,
b0 0
b1001 +
b1001 /
b1001 F
b1001 O
b1001 S
b1001 Z
b1000 *
b1000 .
b1000 E
b1000 N
b1000 R
b1000 Y
1$
1a
#550
0$
0a
#555
b100 !
b100 ?
1D
0B
b1 "
b1 @
b1000 L
b110100 I
b10 M
1K
1<
b10 :
b10 J
b1111 7
b1111 Q
b11111111111111111111111111111111 X
b11 W
b110100 U
b1 1
b1 \
b110001 -
b11 +
b11 /
b11 F
b11 O
b11 S
b11 Z
b100 *
b100 .
b100 E
b100 N
b100 R
b100 Y
1$
1a
#560
0$
0a
#565
1D
b110 "
b110 @
b1000 L
b10111001 I
b0 M
1K
1<
b0 :
b0 J
b110 7
b110 Q
b101 4
b101 V
b11111111111111111111111111111111 X
b101 W
b10111001 U
b1110 1
b1110 \
b110010 -
b1 ,
b1 0
b1011 +
b1011 /
b1011 F
b1011 O
b1011 S
b1011 Z
b1001 *
b1001 .
b1001 E
b1001 N
b1001 R
b1001 Y
1$
1a
#570
0$
0a
#575
1D
b10 "
b10 @
b1000 L
b110101 I
1K
1<
b1110 7
b1110 Q
b100 4
b100 V
b11111111111111111111111111111111 X
b100 W
b110101 U
b10 1
b10 \
b0 ,
b0 0
b11 +
b11 /
b11 F
b11 O
b11 S
b11 Z
b101 *
b101 .
b101 E
b101 N
b101 R
b101 Y
1$
1a
#580
0$
0a
#585
b10 !
b10 ?
1B
0D
b1111 "
b1111 @
b1000 L
b1111 I
1K
1<
b1111 7
b1111 Q
b11111111111111111111111111111111 X
b100 W
b1111 U
b1111 1
b1111 \
b1 ,
b1 0
b0 +
b0 /
b0 F
b0 O
b0 S
b0 Z
b1111 *
b1111 .
b1111 E
b1111 N
b1111 R
b1111 Y
1$
1a
#590
0$
0a
#595
b100 !
b100 ?
1D
0B
b100 "
b100 @
b10 :
b10 J
b10 M
b1000 L
b111100 I
1K
1<
b11111111111111111111111111111111 X
b100 W
b111100 U
b1001 1
b1001 \
b10 ,
b10 0
b11 +
b11 /
b11 F
b11 O
b11 S
b11 Z
b1100 *
b1100 .
b1100 E
b1100 N
b1100 R
b1100 Y
1$
1a
#600
0$
0a
#605
b101 !
b101 ?
1A
1D
b1 "
b1 @
b1000 L
b10000010 I
b1 M
1K
1<
b1 :
b1 J
b10 4
b10 V
b11111111111111111111111111111111 X
b10 W
b10000010 U
12
b1010 1
b1010 \
b11 ,
b11 0
b1000 +
b1000 /
b1000 F
b1000 O
b1000 S
b1000 Z
b10 *
b10 .
b10 E
b10 N
b10 R
b10 Y
1$
1a
